{ "results": [
	{
        "cap_city": "Maiduguri",
        "createdAt": "2015-10-24T17:25:54.748Z",
        "latitude": 11.5097479,
        "longitude": 12.9789121,
        "max_latitude": 13.7144441,
        "max_longitude": 14.680073,
        "min_latitude": 10.0291549,
        "min_longitude": 11.6286559,
        "name": "Borno",
        "objectId": "02cQzO8AuK",
        "state_code": "BR",
        "state_id": 8,
        "updatedAt": "2015-11-17T21:41:23.602Z"
    },
	{
        "cap_city": "Port Harcourt",
        "createdAt": "2015-10-24T17:26:41.980Z",
        "latitude": 4.8580767,
        "longitude": 6.920913499999999,
        "max_latitude": 5.694652899999999,
        "max_longitude": 7.591592899999998,
        "min_latitude": 4.347035099999999,
        "min_longitude": 6.382472000000001,
        "name": "Rivers",
        "objectId": "3Nm3Se12zh",
        "state_code": "RI",
        "state_id": 33,
        "updatedAt": "2015-11-17T21:44:10.561Z"
    },
	{
        "cap_city": "Enugu",
        "createdAt": "2015-10-24T17:26:14.327Z",
        "latitude": 6.452667,
        "longitude": 7.510332999999998,
        "max_latitude": 6.5155669,
        "max_longitude": 7.618160199999999,
        "min_latitude": 6.360852,
        "min_longitude": 7.458772700000001,
        "name": "Enugu",
        "objectId": "4jV7ui7bGB",
        "state_code": "EN",
        "state_id": 14,
        "updatedAt": "2015-11-17T21:41:56.510Z"
    },
	{
        "cap_city": "Minna",
        "createdAt": "2015-10-24T17:26:32.681Z",
        "latitude": 9.081999,
        "longitude": 8.675277,
        "max_latitude": 13.885645,
        "max_longitude": 14.677982,
        "min_latitude": 4.269857099999999,
        "min_longitude": 2.676932,
        "name": "Niger",
        "objectId": "6FHgSGyOtG",
        "state_code": "NI",
        "state_id": 27,
        "updatedAt": "2015-11-17T21:43:04.195Z"
    },
	{
        "cap_city": "Lokoja",
        "createdAt": "2015-10-24T17:26:25.826Z",
        "latitude": 7.561891,
        "longitude": 6.5783387,
        "max_latitude": 8.7320238,
        "max_longitude": 7.8822179,
        "min_latitude": 6.528274199999999,
        "min_longitude": 5.340376,
        "name": "Kogi",
        "objectId": "7K9HuKirq7",
        "state_code": "KO",
        "state_id": 23,
        "updatedAt": "2015-11-17T21:42:49.593Z"
    },
	{
        "cap_city": "Dutse",
        "createdAt": "2015-10-24T17:26:19.728Z",
        "latitude": 12.5700315,
        "longitude": 8.9400589,
        "max_latitude": 12.5708993,
        "max_longitude": 8.9410364,
        "min_latitude": 12.5688205,
        "min_longitude": 8.9387779,
        "name": "Jigawa",
        "objectId": "9jlPNvQBKI",
        "state_code": "JI",
        "state_id": 18,
        "updatedAt": "2015-11-29T08:37:59.605Z"
    },
	{
        "cap_city": "Owerri",
        "createdAt": "2015-10-24T17:26:18.294Z",
        "latitude": 5.5214533,
        "longitude": 6.920913499999999,
        "max_latitude": 5.928465,
        "max_longitude": 7.404109,
        "min_latitude": 5.179824000000001,
        "min_longitude": 6.622309899999999,
        "name": "Imo",
        "objectId": "AEZJ1GGF52",
        "state_code": "IM",
        "state_id": 17,
        "updatedAt": "2015-11-17T21:42:06.564Z"
    },
	{
        "cap_city": "Ado-Ekiti",
        "createdAt": "2015-10-24T17:26:08.346Z",
        "latitude": 7.665581299999999,
        "longitude": 5.3102505,
        "max_latitude": 8.0674911,
        "max_longitude": 5.8048959,
        "min_latitude": 7.272215999999999,
        "min_longitude": 4.9103081,
        "name": "Ekiti",
        "objectId": "BlDvK4bwPp",
        "state_code": "EK",
        "state_id": 13,
        "updatedAt": "2015-11-17T21:41:51.674Z"
    },
	{
        "cap_city": "Katsina",
        "createdAt": "2015-10-24T17:26:27.190Z",
        "latitude": 12.983333,
        "longitude": 7.6,
        "max_latitude": 13.0357094,
        "max_longitude": 7.676266000000001,
        "min_latitude": 12.934095,
        "min_longitude": 7.5706298,
        "name": "Katsina",
        "objectId": "C8yxmrKix8",
        "state_code": "KT",
        "state_id": 21,
        "updatedAt": "2015-11-29T08:37:51.106Z"
    },
	{
        "cap_city": "Abuja",
        "createdAt": "2015-10-24T17:26:15.770Z",
        "latitude": 8.8556838,
        "longitude": 7.179025999999999,
        "max_latitude": 9.3574219,
        "max_longitude": 7.617400000000001,
        "min_latitude": 8.396675,
        "min_longitude": 6.749135,
        "name": "Federal Capital Territory",
        "objectId": "DdYLf8cA05",
        "state_code": "FC",
        "state_id": 15,
        "updatedAt": "2015-11-17T21:40:12.316Z"
    },
	{
        "cap_city": "Abakaliki",
        "createdAt": "2015-10-24T17:26:02.959Z",
        "latitude": 6.177973,
        "longitude": 7.959286299999999,
        "max_latitude": 6.807093,
        "max_longitude": 8.4470269,
        "min_latitude": 5.6873539,
        "min_longitude": 7.5251131,
        "name": "Ebonyi",
        "objectId": "JVQdJmws25",
        "state_code": "EB",
        "state_id": 11,
        "updatedAt": "2015-11-17T21:41:39.609Z"
    },
	{
        "cap_city": "Umuahia",
        "createdAt": "2015-10-24T17:25:39.089Z",
        "latitude": 5.430892099999999,
        "longitude": 7.524724300000001,
        "max_latitude": 6.0191921,
        "max_longitude": 7.9630091,
        "min_latitude": 4.810874,
        "min_longitude": 7.150823,
        "name": "Abia",
        "objectId": "MeLAxdqaxO",
        "state_code": "AB",
        "state_id": 1,
        "updatedAt": "2015-11-17T21:38:33.446Z"
    },
	{
        "cap_city": "Akure",
        "createdAt": "2015-10-24T17:26:35.684Z",
        "latitude": 7.083333,
        "longitude": 4.833333,
        "max_latitude": 7.1249106,
        "max_longitude": 4.871921599999999,
        "min_latitude": 7.0529381,
        "min_longitude": 4.7963046,
        "name": "Ondo",
        "objectId": "OKIQ6xHI5P",
        "state_code": "ON",
        "state_id": 29,
        "updatedAt": "2015-11-27T12:23:13.981Z"
    },
	{
        "cap_city": "Awka",
        "createdAt": "2015-10-24T17:25:48.278Z",
        "latitude": 6.2757656,
        "longitude": 7.0068393,
        "max_latitude": 6.7795999,
        "max_longitude": 7.355934,
        "min_latitude": 5.692615000000001,
        "min_longitude": 6.613086,
        "name": "Anambra",
        "objectId": "P0CN0pyx5n",
        "state_code": "AN",
        "state_id": 4,
        "updatedAt": "2015-11-17T21:40:43.198Z"
    },
	{
        "cap_city": "Kaduna",
        "createdAt": "2015-10-24T17:26:21.035Z",
        "latitude": 10.516667,
        "longitude": 7.433332999999999,
        "max_latitude": 10.6169963,
        "max_longitude": 7.508812000000001,
        "min_latitude": 10.3971566,
        "min_longitude": 7.349789099999999,
        "name": "Kaduna",
        "objectId": "PC16Tm1901",
        "state_code": "KD",
        "state_id": 19,
        "updatedAt": "2015-11-17T21:42:20.201Z"
    },
	{
        "cap_city": "Calabar",
        "createdAt": "2015-10-24T17:25:59.802Z",
        "latitude": 6.167031499999999,
        "longitude": 8.6600586,
        "max_latitude": 6.899680999999999,
        "max_longitude": 9.472486,
        "min_latitude": 4.690596000000001,
        "min_longitude": 7.863165999999999,
        "name": "Cross River",
        "objectId": "QbO62bqF2w",
        "state_code": "CR",
        "state_id": 9,
        "updatedAt": "2015-11-17T21:41:28.368Z"
    },
	{
        "cap_city": "Gusau",
        "createdAt": "2015-10-24T17:26:47.500Z",
        "latitude": 12.1844159,
        "longitude": 6.2375947,
        "max_latitude": 13.207291,
        "max_longitude": 7.245729999999999,
        "min_latitude": 10.854616,
        "min_longitude": 5.021007099999999,
        "name": "Zamfara",
        "objectId": "SS4merLNWz",
        "state_code": "ZA",
        "state_id": 37,
        "updatedAt": "2015-11-17T21:44:28.189Z"
    },
	{
        "cap_city": "Bauchi",
        "createdAt": "2015-10-24T17:25:50.487Z",
        "latitude": 10.315833,
        "longitude": 9.844166999999999,
        "max_latitude": 10.3398292,
        "max_longitude": 9.864006,
        "min_latitude": 10.255381,
        "min_longitude": 9.779892,
        "name": "Bauchi",
        "objectId": "Sk3TaWP5sN",
        "state_code": "BA",
        "state_id": 5,
        "updatedAt": "2015-11-17T21:40:46.914Z"
    },
	{
        "cap_city": "Lafia",
        "createdAt": "2015-10-24T17:26:31.116Z",
        "latitude": 8.5705151,
        "longitude": 8.3088441,
        "max_latitude": 9.365964000000002,
        "max_longitude": 9.605724,
        "min_latitude": 7.769181,
        "min_longitude": 6.924008,
        "name": "Nasarawa",
        "objectId": "Wd3WGk03tA",
        "state_code": "NA",
        "state_id": 26,
        "updatedAt": "2015-11-17T21:43:01.717Z"
    },
	{
        "cap_city": "Jalingo",
        "createdAt": "2015-10-24T17:26:44.636Z",
        "latitude": 7.9868755,
        "longitude": 10.9807003,
        "max_latitude": 9.604444899999999,
        "max_longitude": 11.981274,
        "min_latitude": 6.502453999999999,
        "min_longitude": 9.1043009,
        "name": "Taraba",
        "objectId": "Zx7xeLWSOx",
        "state_code": "TA",
        "state_id": 35,
        "updatedAt": "2015-11-17T21:44:19.661Z"
    },
	{
        "cap_city": "Kano",
        "createdAt": "2015-10-24T17:26:24.570Z",
        "latitude": 12.0021794,
        "longitude": 8.591956099999999,
        "max_latitude": 12.0829016,
        "max_longitude": 8.6704765,
        "min_latitude": 11.912873,
        "min_longitude": 8.411321599999999,
        "name": "Kano",
        "objectId": "adRje8vJXo",
        "state_code": "KN",
        "state_id": 20,
        "updatedAt": "2015-11-17T21:42:22.474Z"
    },
	{
        "cap_city": "Benin",
        "createdAt": "2015-10-24T17:26:04.731Z",
        "latitude": 6.5438101,
        "longitude": 5.898713900000001,
        "max_latitude": 7.5721479,
        "max_longitude": 6.707891000000001,
        "min_latitude": 5.7386799,
        "min_longitude": 4.975229,
        "name": "Edo",
        "objectId": "bOCVpRr2St",
        "state_code": "ED",
        "state_id": 12,
        "updatedAt": "2015-11-17T21:41:45.983Z"
    },
	{
        "cap_city": "Ilorin",
        "createdAt": "2015-10-24T17:26:28.359Z",
        "latitude": 8.9847995,
        "longitude": 4.5624426,
        "max_latitude": 10.152084,
        "max_longitude": 6.2142591,
        "min_latitude": 7.966079000000001,
        "min_longitude": 2.728413,
        "name": "Kwara",
        "objectId": "cDu1A8C5Lq",
        "state_code": "KW",
        "state_id": 24,
        "updatedAt": "2015-11-17T21:42:55.431Z"
    },
	{
        "cap_city": "Yenagoa",
        "createdAt": "2015-10-24T17:25:57.359Z",
        "latitude": 4.867776699999999,
        "longitude": 5.898713900000001,
        "max_latitude": 5.3933139,
        "max_longitude": 6.724865899999999,
        "min_latitude": 4.2771439,
        "min_longitude": 5.370120500000001,
        "name": "Bayelsa",
        "objectId": "cZ4iJodbwf",
        "state_code": "BY",
        "state_id": 6,
        "updatedAt": "2015-11-17T21:41:10.634Z"
    },
	{
        "cap_city": "Yola",
        "createdAt": "2015-10-24T17:25:40.902Z",
        "latitude": 9.3250497,
        "longitude": 12.4380581,
        "max_latitude": 10.943588,
        "max_longitude": 13.6924919,
        "min_latitude": 7.452592,
        "min_longitude": 11.392936,
        "name": "Adamawa",
        "objectId": "eALHoPP0Cz",
        "state_code": "AD",
        "state_id": 2,
        "updatedAt": "2015-11-17T21:40:20.258Z"
    },
	{
        "cap_city": "Sokoto",
        "createdAt": "2015-10-24T17:26:43.410Z",
        "latitude": 13.066667,
        "longitude": 5.233333,
        "max_latitude": 13.0880893,
        "max_longitude": 5.2881144,
        "min_latitude": 12.9764148,
        "min_longitude": 5.1676084,
        "name": "Sokoto",
        "objectId": "eMXfvI0y3l",
        "state_code": "SO",
        "state_id": 34,
        "updatedAt": "2015-11-17T21:44:16.434Z"
    },
	{
        "cap_city": "Abeokuta",
        "createdAt": "2015-10-24T17:26:34.135Z",
        "latitude": 6.9098333,
        "longitude": 3.2583626,
        "max_latitude": 7.974634999999999,
        "max_longitude": 4.5990951,
        "min_latitude": 6.315346099999999,
        "min_longitude": 2.668432,
        "name": "Ogun",
        "objectId": "fdnb7TN68t",
        "state_code": "OG",
        "state_id": 28,
        "updatedAt": "2015-11-17T21:43:09.293Z"
    },
	{
        "cap_city": "Birnin Kebbi",
        "createdAt": "2015-10-24T17:26:22.496Z",
        "latitude": 11.6781241,
        "longitude": 4.0695454,
        "max_latitude": 13.232542,
        "max_longitude": 6.027123,
        "min_latitude": 10.0931591,
        "min_longitude": 3.4958741,
        "name": "Kebbi",
        "objectId": "hi5qLefrwv",
        "state_code": "KB",
        "state_id": 22,
        "updatedAt": "2015-11-29T08:37:56.241Z"
    },
	{
        "cap_city": "Gombe",
        "createdAt": "2015-10-24T17:26:16.999Z",
        "latitude": 10.283333,
        "longitude": 11.166667,
        "max_latitude": 10.3128497,
        "max_longitude": 11.2147019,
        "min_latitude": 10.264117,
        "min_longitude": 11.1424112,
        "name": "Gombe",
        "objectId": "k9YBrK7ZeG",
        "state_code": "GO",
        "state_id": 16,
        "updatedAt": "2015-11-17T21:42:01.907Z"
    },
	{
        "cap_city": "Makurdi",
        "createdAt": "2015-10-24T17:25:53.246Z",
        "latitude": 7.350825899999999,
        "longitude": 8.8362755,
        "max_latitude": 8.149299,
        "max_longitude": 9.918301,
        "min_latitude": 6.4427789,
        "min_longitude": 7.4893301,
        "name": "Benue",
        "objectId": "njtcFtdbid",
        "state_code": "BE",
        "state_id": 7,
        "updatedAt": "2015-11-17T21:41:05.362Z"
    },
	{
        "cap_city": "Jos",
        "createdAt": "2015-10-24T17:26:40.338Z",
        "latitude": 9.2350817,
        "longitude": 9.7232673,
        "max_latitude": 10.3447241,
        "max_longitude": 10.6606639,
        "min_latitude": 8.350639,
        "min_longitude": 8.544271,
        "name": "Plateau",
        "objectId": "oJtnZxwC74",
        "state_code": "PL",
        "state_id": 32,
        "updatedAt": "2015-11-17T21:43:59.943Z"
    },
	{
        "cap_city": "Ikeja",
        "createdAt": "2015-10-24T17:26:29.645Z",
        "latitude": 6.5243793,
        "longitude": 3.3792057,
        "max_latitude": 6.7027984,
        "max_longitude": 3.696727799999999,
        "min_latitude": 6.3936419,
        "min_longitude": 3.0982732,
        "name": "Lagos",
        "objectId": "rLkGskrpeO",
        "state_code": "LA",
        "state_id": 25,
        "updatedAt": "2015-11-17T21:42:57.086Z"
    },
	{
        "cap_city": "Asaba",
        "createdAt": "2015-10-24T17:26:01.462Z",
        "latitude": 5.5324624,
        "longitude": 5.898713900000001,
        "max_latitude": 6.5248195,
        "max_longitude": 6.7653911,
        "min_latitude": 5.024351999999999,
        "min_longitude": 5.000000099999999,
        "name": "Delta",
        "objectId": "tC1asTRQOZ",
        "state_code": "DE",
        "state_id": 10,
        "updatedAt": "2015-11-17T21:41:33.175Z"
    },
	{
        "cap_city": "Osogbo",
        "createdAt": "2015-10-24T17:26:37.112Z",
        "latitude": 7.5875843,
        "longitude": 4.5624426,
        "max_latitude": 8.088640999999999,
        "max_longitude": 5.0647019,
        "min_latitude": 6.969976,
        "min_longitude": 4.020612,
        "name": "Osun",
        "objectId": "uAIeOv1zlT",
        "state_code": "OS",
        "state_id": 30,
        "updatedAt": "2015-11-17T21:43:17.235Z"
    },
	{
        "cap_city": "Damaturu",
        "createdAt": "2015-10-24T17:26:45.999Z",
        "latitude": 12.1871412,
        "longitude": 11.7068294,
        "max_latitude": 13.376133,
        "max_longitude": 12.494047,
        "min_latitude": 10.5932052,
        "min_longitude": 9.665973100000002,
        "name": "Yobe",
        "objectId": "vwkMcqEY6J",
        "state_code": "YO",
        "state_id": 36,
        "updatedAt": "2015-11-17T21:44:24.248Z"
    },
	{
        "cap_city": "Uyo",
        "createdAt": "2015-10-24T17:25:42.756Z",
        "latitude": 4.929986899999999,
        "longitude": 7.872159999999999,
        "max_latitude": 5.530245,
        "max_longitude": 8.340371,
        "min_latitude": 4.4780049,
        "min_longitude": 7.4605409,
        "name": "Akwa Ibom",
        "objectId": "vxgGu4XdHb",
        "state_code": "AK",
        "state_id": 3,
        "updatedAt": "2015-11-17T21:40:38.729Z"
    },
	{
        "cap_city": "Ibadan",
        "createdAt": "2015-10-24T17:26:38.557Z",
        "latitude": 7.85,
        "longitude": 3.933,
        "max_latitude": 7.8899933,
        "max_longitude": 3.9751624,
        "min_latitude": 7.790425099999999,
        "min_longitude": 3.8832377,
        "name": "Oyo",
        "objectId": "zz5fF26kg4",
        "state_code": "OY",
        "state_id": 31,
        "updatedAt": "2015-11-17T21:43:26.526Z"
    }
] }